{
"storeHouse":
[
{"sourceName":"🎞️大烟管①","sourceUrl":"http://52bsj.vip:81/api/v3/file/get/67121/%E7%BB%BF%E8%8C%B61.txt?sign=P1Ko2EJyKAdWqcdNZhfmF0gsWTRvL971YmFYtzW25ek%3D%3A0"},
{"sourceName":"🎞️大烟管②","sourceUrl":"https://gitlab.com/Songqingxu1988/tvbox/-/raw/main/FL.json"},
{"sourceName":"🎞️大烟管③","sourceUrl":"http://52bsj.vip:81/api/v3/file/get/67278/%E7%BB%BF%E8%8C%B64.txt?sign=MN_qRMG2fSRvQ38lIGw1alcZrrn07i27A1lVpsdyY7I%3D%3A0"}
]
}
