{
    "spider": "https://gitlab.com/Songqingxu1988/tvbox/-/raw/main/JAR/3.jar",
    "sites": [
        {"key":"csp_xpath_扛把子影院","name":"扛把子影院(xpf)","type":3,"api":"csp_XPathFilter","searchable":1,"quickSearch":1,"filterable":0,"ext":"https://breadmyth.github.io/tv/MeowXP/扛把子影院(xpf).json"},
        { "key": "(18+)环亚资源", "name": "(18+不错)环亚资源", "type": 0, "api": "http://wmcj8.com/inc/sapi.php?ac=videolist", "searchable": 1, "quickSearch": 1, "filterable": 0 },
        { "key": "(18+)速度资源", "name": "(18+)速度资源", "type": 0, "api": "http://www.ggmmzy.com:9999/inc/xml", "searchable": 1, "quickSearch": 1, "filterable": 0 },
        { "key": "芒果18+", "name": "芒果18+(动漫)", "type": 1, "api": "https://mgzyz1.com/api.php/provide/vod/?ac=list", "playUrl": "https://mgm3u8-player.com/player/DPm3u8.php?url=", "searchable": 0, "quickSearch": 1, "filterable": 0 },
        { "key": "ms4nii", "name": "美少女资源(已修复)", "type": 0, "api": "https://www.msnii.com/api/xml.php", "searchable": 1, "quickSearch": 1, "filterable": 1 },
        { "key": "KxrbspE", "name": "淫水机资源(已修复)", "type": 0, "api": "https://www.xrbsp.com/api/xml.php", "searchable": 1, "quickSearch": 1, "filterable": 1 },
        { "key": "gdlsE", "name": "香奶儿资源(已修复)", "type": 0, "api": "https://www.gdlsp.com/api/xml.php", "searchable": 1, "quickSearch": 1, "filterable": 1 },
        { "key": "kxgav", "name": "白嫖资源(已修复)", "type": 0, "api": "https://www.kxgav.com/api/xml.php", "searchable": 1, "quickSearch": 1, "filterable": 1 },
        { "key": "afasu", "name": "小湿妹资源(已修复)", "type": 0, "api": "https://www.afasu.com/api/xml.php", "searchable": 1, "quickSearch": 1, "filterable": 1 },
        { "key": "KpgxdyE", "name": "黄AV资源(已修复)", "type": 0, "api": "https://www.pgxdy.com/api/xml.php", "searchable": 1, "quickSearch": 1, "filterable": 1 },
        { "key": "ap4i156dlyE", "name": "奶茶资源(已修复)", "type": 0, "api": "https://caiji.naichaapi.com/inc/api.php", "searchable": 1, "quickSearch": 1, "filterable": 1 },
        { "key": "yinlong", "name": "银龙资源(已修复)", "type": 0, "api": "https://yinlong.tv/api.php/provide/vod/at/xml/", "searchable": 0, "quickSearch": 0, "filterable": 0 },
        { "key": "ap441i156dlyE", "name": "草莓资源(新增)", "type": 0, "api": "https://caiji.caomeiapi.com/inc/api.php", "searchable": 1, "quickSearch": 1, "filterable": 1 },
        { "key": "(18+)富二代资源", "name": "(18+)富二代资源", "type": 0, "api": "http://f2dcj6.com/sapi/?ac=videolist", "searchable": 1, "quickSearch": 1, "filterable": 0 },
        { "key": "(18+)4000资源", "name": "18+(良)4000资源", "type": 0, "api": "https://www.4000zy.com/inc/api.php", "searchable": 1, "quickSearch": 1, "filterable": 0 },
        { "key": "(18+)水蜜桃", "name": "18+(不错)水蜜桃", "type": 1, "api": "http://51smt4.xyz/api.php/provide/vod/", "searchable": 1, "quickSearch": 1, "filterable": 0 },
        { "key": "博天堂", "name": "博天堂18x", "type": 0, "api": "http://bttcj.com/inc/sapi.php", "searchable": 0, "quickSearch": 1, "filterable": 0 },
        { "key": "鲨鱼18+", "name": "鲨鱼18+", "type": 0, "api": "https://shayuapi.com/api.php/Seacms/vod", "searchable": 0, "quickSearch": 1, "filterable": 0 },
        { "key": "(18+)523资源", "name": "(18+)523资源", "type": 0, "api": "https://caiji.523zyw.com/inc/api.php", "searchable": 1, "quickSearch": 1, "filterable": 0 },
        { "key": "(18+)天堂福利", "name": "(18+)天堂福利", "type": 0, "api": "https://bttcj.com/inc/sapi.php", "searchable": 1, "quickSearch": 1, "filterable": 0 },
        { "key": "(18+)探探资源", "name": "(18+)探探资源", "type": 0, "api": "https://apittzy.com/api.php/provide/vod/at/xml", "playUrl": "https://jiexi.ttbfp1.com/m3u8/?url=", "searchable": 1, "quickSearch": 1, "filterable": 0 },
        { "key": "(18+)秀色资源", "name": "(18+)秀色资源", "type": 0, "api": "https://api.xiuseapi.com/api.php/provide/vod/at/xml", "playUrl": "https://player.leyuzy.net/?url=", "searchable": 1, "quickSearch": 1, "filterable": 0 },
        { "key": "(18+)利来资源", "name": "(18+)利来资源", "type": 0, "api": "http://llzxcj.com/inc/sck.php?ac=videolist", "searchable": 1, "quickSearch": 1, "filterable": 0 },
        { "key": "(18+)字幕网", "name": "(18+)字幕网", "type": 0, "api": "http://zmcj88.com/sapi?ac=videolist", "searchable": 1, "quickSearch": 1, "filterable": 0 },
        { "key": "(18+)JAV名优", "name": "(18+)JAV名优", "type": 0, "api": "http://mygzycj.com/api.php?ac=list", "searchable": 1, "quickSearch": 1, "filterable": 0 },
        { "key": "(18+)SS资源", "name": "(18+)SS资源", "type": 0, "api": "http://secj8.com/inc/sapi.php?ac=videolist", "searchable": 1, "quickSearch": 1, "filterable": 0 },
        { "key": "(18+)大地资源", "name": "(18+)大地资源", "type": 0, "api": "https://dadiapi.com/api.php/", "searchable": 1, "quickSearch": 1, "filterable": 0 },
        { "key": "(18+)乐播", "name": "(18+)乐播", "type": 0, "api": "https://lbapi9.com/api.php/provide/vod/at/xml", "searchable": 1, "quickSearch": 1, "filterable": 0 },
        { "key": "(18+)狼少年", "name": "(18+)狼少年", "type": 0, "api": "http://cjmygzy.com/inc/sapi.php?ac=videolist", "searchable": 1, "quickSearch": 1, "filterable": 0 },
        { "key": "(18+)番号资源", "name": "(18+)番号资源", "type": 1, "api": "http://fhapi9.com/api.php/provide/vod/", "searchable": 1, "quickSearch": 1, "filterable": 0 },
        { "key": "(18+)S猫资源", "name": "(18+)S猫资源", "type": 0, "api": "https://api.maozyapi.com/inc/api.php", "searchable": 1, "quickSearch": 1, "filterable": 0 },
        { "key": "(18+)100ai", "name": "(18+)100ai", "type": 0, "api": "http://www.010aizy.com/API/maxs.php", "searchable": 1, "quickSearch": 1, "filterable": 0 },
        { "key": "(18+)速播资源", "name": "(18+)速播资源", "type": 1, "api": "http://api.suboapi.com/api.php/provide/vod/", "searchable": 1, "quickSearch": 1, "filterable": 0 },
        {"key":"*523资源","name":"*523资源","type":1,"api":"https://caiji.523zyw.com/inc/apijson_vod.php","searchable":0,"quickSearch":0},
        {"key":"*丝袜资源","name":"*丝袜资源","type":1,"api":"https://siwazyw.cc/api.php/provide/vod/","searchable":0,"quickSearch":0},
        {"key":"*芒果资源","name":"*芒果资源","type":1,"api":"https://mgzyz1.com/api.php/provide/vod/","searchable":0,"quickSearch":0},
        {"key":"*乐鱼资源","name":"*乐鱼资源","type":1,"api":"https://www.leyuzyapi.com/inc/apijson_vod.php","searchable":0,"quickSearch":0},
        {"key":"*水蜜桃","name":"*水蜜桃","type":1,"api":"http://51smt4.xyz/api.php/provide/vod/","searchable":0,"quickSearch":0},
        {"key":"*秀色资源","name":"*秀色资源","type":1,"api":"https://api.xiuseapi.com/api.php/provide/vod/","searchable":0,"quickSearch":0},
        {"key":"*探探资源","name":"*探探资源","type":1,"api":"https://apittzy.com/api.php/provide/vod/","searchable":0,"quickSearch":0},
        {"key":"*色猫资源","name":"*色猫资源","type":1,"api":"https://api.maozyapi.com/inc/apijson_vod.php","searchable":0,"quickSearch":0},
        {"key":"*草莓资源","name":"*草莓资源","type":1,"api":"https://caiji.caomeiapi.com/inc/apijson_vod.php","searchable":0,"quickSearch":0},
        {"key":"*爱看资源","name":"*爱看资源","type":1,"api":"http://www.aikanzyz9.com/inc/apijson_vod.php","searchable":0,"quickSearch":0},
        {"key":"*花魁资源","name":"*花魁资源","type":1,"api":"https://caiji.huakuiapi.com/inc/apijson_vod.php","searchable":0,"quickSearch":0},
        {"key":"*葡萄资源","name":"*葡萄资源","type":1,"api":"https://api.putaozy.net/inc/apijson_vod.php","searchable":0,"quickSearch":0},
        {"key":"*色窝资源","name":"*色窝资源","type":1,"api":"https://sewozyapi.com/api.php/provide/vod/","searchable":0,"quickSearch":0},
        {"key":"*淫窝资源","name":"*淫窝资源","type":1,"api":"https://api.yinwoapi.com/api.php/provide/vod/","searchable":0,"quickSearch":0},
        {"key":"*4000资源","name":"*4000资源","type":1,"api":"https://www.4000zy.com/inc/apijson_vod.php","searchable":0,"quickSearch":0},
        {"key":"*色屌丝资源","name":"*色屌丝资源","type":0,"api":"http://sdszyapi.com/home/cjapi/asbb/mc10/vod/xml","searchable":0,"quickSearch":0},
        {"key":"*小姐姐资源","name":"*小姐姐资源","type":0,"api":"https://xjjzyapi.com/home/cjapi/askl/mc10/vod/xml","searchable":0,"quickSearch":0},
        {"key":"*52AVAV","name":"*52AVAV","type":0,"api":"https://52zyapi.com/home/cjapi/asda/mc10/vod/xml","searchable":0,"quickSearch":0},
        {"key":"*我要啪啪","name":"*我要啪啪","type":0,"api":"http://www.caiji21.com/home/cjapi/klkl/mc10/vod/xml","searchable":0,"quickSearch":0},
        {"key":"*AV集中淫","name":"*AV集中淫","type":0,"api":"https://www.caiji22.com/home/cjapi/klp0/mc10/vod/xml","searchable":0,"quickSearch":0},
        {"key":"*夜夜撸资源","name":"*夜夜撸资源","type":0,"api":"https://www.caiji23.com/home/cjapi/kls6/mc10/vod/xml","searchable":0,"quickSearch":0},
        {"key":"*大屌丝资源","name":"*大屌丝资源","type":0,"api":"http://www.caiji24.com/home/cjapi/p0d2/mc10/vod/xml","searchable":0,"quickSearch":0},
        {"key":"*咪咪资源","name":"*咪咪资源","type":0,"api":"http://www.caiji25.com/home/cjapi/p0as/mc10/vod/xml","searchable":0,"quickSearch":0},
        {"key":"*鲍鱼AV","name":"*鲍鱼AV","type":0,"api":"http://caiji26.com/home/cjapi/p0g8/mc10/vod/xml","searchable":0,"quickSearch":0},
        {"key":"*精工厂资源","name":"*精工厂资源","type":0,"api":"https://jgczyapi.com/home/cjapi/kld2/mc10/vod/xml","searchable":0,"quickSearch":0},
        {"key":"*点点娱乐","name":"*点点娱乐","type":0,"api":"https://xx55zyapi.com/home/cjapi/ascf/mc10/vod/xml","searchable":0,"quickSearch":0},
        {"key":"*大MM资源","name":"*大MM资源","type":0,"api":"https://www.dmmapi.com/home/cjapi/asd2c7/mc10/vod/xml","searchable":0,"quickSearch":0},
        {"key":"*黄瓜TV资源","name":"*黄瓜TV资源","type":0,"api":"https://www.caiji10.com/home/cjapi/cfs6/mc10/vod/xml","searchable":0,"quickSearch":0},
        {"key":"*快播盒子资源","name":"*快播盒子资源","type":0,"api":"https://www.caiji09.com/home/cjapi/cfp0/mc10/vod/xml","searchable":0,"quickSearch":0},
        {"key":"*大香蕉资源","name":"*大香蕉资源","type":0,"api":"https://www.caiji08.com/home/cjapi/cfkl/mc10/vod/xml","searchable":0,"quickSearch":0},
        {"key":"*日本AV在线","name":"*日本AV在线","type":0,"api":"https://www.caiji07.com/home/cjapi/cfcf/mc10/vod/xml","searchable":0,"quickSearch":0},
        {"key":"*久久热在线","name":"*久久热在线","type":0,"api":"https://www.caiji06.com/home/cjapi/cfbb/mc10/vod/xml","searchable":0,"quickSearch":0},
        {"key":"*青青草视频","name":"*青青草视频","type":0,"api":"https://www.caiji05.com/home/cjapi/cfda/mc10/vod/xml","searchable":0,"quickSearch":0},
        {"key":"*麻豆视频","name":"*麻豆视频","type":0,"api":"https://www.caiji04.com/home/cjapi/cfc7/mc10/vod/xml","searchable":0,"quickSearch":0},
        {"key":"*一本道资源","name":"*一本道资源","type":0,"api":"https://www.caiji03.com/home/cjapi/cfg8/mc10/vod/xml","searchable":0,"quickSearch":0},
        {"key":"*草榴视频","name":"*草榴视频","type":0,"api":"https://www.caiji02.com/home/cjapi/cfas/mc10/vod/xml","searchable":0,"quickSearch":0},
        {"key":"*亚洲成人在线","name":"*亚洲成人在线","type":0,"api":"https://www.caiji01.com/home/cjapi/cfd2/mc10/vod/xml","searchable":0,"quickSearch":0},
        {"key":"*天噜啦资源","name":"*天噜啦资源","type":0,"api":"http://www.987caiji.com/api/max.php","searchable":0,"quickSearch":0},
        {"key":"*99资源","name":"*99资源","type":1,"api":"http://99zy.pw/api.php/provide/vod/","searchable":0,"quickSearch":0},
        {"key":"*010爱资源","name":"*010爱资源","type":0,"api":"http://www.010aizy.com/API/macs.php","searchable":0,"quickSearch":0},
        {"key":"*痴汉队长","name":"*痴汉队长","type":1,"api":"https://javcaptain.com/api.php/provide/vod/","searchable":0,"quickSearch":0},
        {"key":"*抖阴视频","name":"*抖阴视频","type":1,"api":"https://www.888dav.com/api.php/provide/vod/","searchable":0,"quickSearch":0},
        {"key":"*麻豆视频2","name":"*麻豆视频2","type":1,"api":"https://madouse.la/api.php/provide/vod/","searchable":0,"quickSearch":0},
        {"key":"*91麻豆","name":"*91麻豆","type":1,"api":"https://91md.me/api.php/provide/vod/","searchable":0,"quickSearch":0},
        {"key":"*爱操资源","name":"*爱操资源","type":1,"api":"https://aicaozy.com/api.php/provide/vod/","searchable":0,"quickSearch":0},
        {"key":"*浪潮资源","name":"*浪潮资源","type":1,"api":"http://langchaozy6.com/api.php/provide/vod/","searchable":0,"quickSearch":0},
        {"key":"*速播资源","name":"*速播资源","type":1,"api":"https://api.suboapi.com/api.php/provide/vod/","searchable":0,"quickSearch":0},
        {"key":"*酷豆资源","name":"*酷豆资源","type":1,"api":"https://kudouzy.com/api.php/provide/vod/","searchable":0,"quickSearch":0},
        {"key":"*酷豆2","name":"*酷豆2","type":1,"api":"https://api.kdapi.info/api.php/provide/vod/","searchable":0,"quickSearch":0},
        {"key":"*酷伦理","name":"*酷伦理","type":1,"api":"https://api.kudian70.com/api.php/provide/vod/","searchable":0,"quickSearch":0},
        {"key":"*影库资源","name":"*影库资源","type":1,"api":"https://api.ykapi.net/api.php/provide/vod/","searchable":0,"quickSearch":0},
        {"key":"*万影色","name":"*万影色","type":1,"api":"https://wanying4.com/api.php/provide/vod/","searchable":0,"quickSearch":0},
        {"key":"*银龙资源","name":"*银龙资源","type":1,"api":"https://yinlong.tv/api.php/provide/vod/","searchable":0,"quickSearch":0},
        {"key":"*奶茶资源","name":"*奶茶资源","type":1,"api":"https://caiji.naichaapi.com/inc/apijson_vod.php","searchable":0,"quickSearch":0},
        {"key":"*爱播资源","name":"*爱播资源","type":1,"api":"https://cj.apiabzy.com/api.php/provide/vod/","searchable":0,"quickSearch":0},
        {"key":"*美少女资源","name":"*美少女资源","type":0,"api":"https://www.msnii.com/api/xml.php","searchable":0,"quickSearch":0},
        {"key":"*淫水机资源","name":"*淫水机资源","type":0,"api":"https://www.xrbsp.com/api/xml.php","searchable":0,"quickSearch":0},
        {"key":"*香奶儿资源","name":"*香奶儿资源","type":0,"api":"https://www.gdlsp.com/api/xml.php","searchable":0,"quickSearch":0},
        {"key":"*白嫖资源","name":"*白嫖资源","type":0,"api":"https://www.kxgav.com/api/xml.php","searchable":0,"quickSearch":0},
        {"key":"*小湿妹资源","name":"*小湿妹资源","type":0,"api":"https://www.afasu.com/api/xml.php","searchable":0,"quickSearch":0},
        {"key":"*黄AV资源","name":"*黄AV资源","type":1,"api":"https://www.pgxdy.com/api/json.php","searchable":0,"quickSearch":0},
        {"key":"*大地资源","name":"*大地资源","type":0,"api":"https://dadiapi.com/api.php","searchable":0,"quickSearch":0},
        {"key":"*CK资源","name":"*CK资源","type":1,"api":"http://www.feifei67.com/api.php/provide/vod/","searchable":0,"quickSearch":0},
        {"key":"*老鸭资源","name":"*老鸭资源","type":1,"api":"https://api.apilyzy.com/api.php/provide/vod/","searchable":0,"quickSearch":0},
        {"key":"*花椒资源","name":"*花椒资源","type":1,"api":"https://apihjzy.com/api.php/provide/vod/","searchable":0,"quickSearch":0},
        {"key":"*辣椒资源","name":"*辣椒资源","type":1,"api":"https://apilj.com/api.php/provide/vod/at/json/","searchable":0,"quickSearch":0},
        {"key":"*乐播资源","name":"*乐播资源","type":1,"api":"https://lbapi9.com/api.php/provide/vod/","searchable":0,"quickSearch":0},
        {"key":"*博天堂","name":"*博天堂","type":0,"api":"http://bttcj.com/inc/sapi.php","searchable":0,"quickSearch":0},
        {"key":"*环亚资源","name":"*环亚资源","type":0,"api":"http://wmcj8.com/inc/sapi.php","searchable":0,"quickSearch":0},
        {"key":"*JAV名优馆","name":"*JAV名优馆","type":0,"api":"http://mygzycj.com/api.php?ac=videolist","searchable":0,"quickSearch":0},
        {"key":"*AVZY6888资源","name":"*AVZY6888资源","type":1,"api":"http://m.7777688.com/inc/apijson.php","searchable":0,"quickSearch":0},
        {"key":"*色色资源","name":"*色色资源","type":0,"api":"http://secj8.com/inc/sapi.php?ac=videolist","searchable":0,"quickSearch":0},
        {"key":"*玖玖资源","name":"*玖玖资源","type":0,"api":"http://99zywcj.com/inc/sapi.php?ac=videolist","searchable":0,"quickSearch":0},
        {"key":"*久草资源","name":"*久草资源","type":0,"api":"http://jcspcj8.com/api?ac=videolist","searchable":0,"quickSearch":0},
        {"key":"*狼少年","name":"*狼少年","type":0,"api":"http://cjmygzy.com/inc/sapi.php?ac=videolist","searchable":0,"quickSearch":0},
        {"key":"*富二代资源","name":"*富二代资源","type":0,"api":"http://f2dcj6.com/sapi?ac=videolist","searchable":0,"quickSearch":0},
        {"key":"*字幕网","name":"*字幕网","type":0,"api":"http://zmcj88.com/sapi?ac=videolist","searchable":0,"quickSearch":0},
        {"key":"*利来资源","name":"*利来资源","type":0,"api":"http://llzxcj.com/inc/sck.php?ac=videolist","searchable":0,"quickSearch":0},
        {"key":"*佳丽资源","name":"*佳丽资源","type":1,"api":"http://www.jializyzapi.com/api.php/provide/vod/","searchable":0,"quickSearch":0},
        {"key":"*番号资源","name":"*番号资源","type":1,"api":"http://fhapi9.com/api.php/provide/vod/","searchable":0,"quickSearch":0},
        {"key":"*鲨鱼资源","name":"*鲨鱼资源","type":1,"api":"https://shayuapi.com/api.php/provide/vod/","searchable":0,"quickSearch":0},
        {"key":"*速度资源","name":"*速度资源","type":0,"api":"http://www.ggmmzy.com:9999/inc/xml","searchable":0,"quickSearch":0},
        {"key":"*KK写真资源","name":"*KK写真资源","type":1,"api":"https://kkzy.me/api.php/provide/vod/","searchable":0,"quickSearch":0},
        {"key": "精工厂","name": "精工厂","type": 0,"api": "https://jgczyapi.com/home/cjapi/kld2/mc/vod/xml","searchable": 1,"quickSearch": 1,"filterable": 0},
    {
      "key": "csp_xpath_xxj",
      "name": "新香蕉(XP)",
      "type": 3,
      "api": "csp_XPathMacFilter",
      "searchable": 1,
      "quickSearch": 1,
      "filterable": 1,
      "ext": "https://breadmyth.github.io/tv/MeowXP/2024xxj.json"
    },
    {
      "key": "91md",
      "name": "91md",
      "type": 1,
      "api": "https://91md.me/api.php/provide/vod/from/mdm3u8/",
      "tag": "qb,tj,rm",
      "categories": []
    },
    {
      "key": "影库资源",
      "name": "影库资源",
      "type": 1,
      "api": "https://api.ykapi.net/api.php/provide/vod/from/ykm3u8/",
      "tag": "qb,tj",
      "categories": []
    }, 
    {
      "key": "速播",
      "name": "速播",
      "type": 1,
      "api": "https://api.suboapi.com/api.php/provide/vod/",
      "searchable": 1,
      "quickSearch": 1,
      "filterable": 0
    },
    {
      "key": "美少女",
      "name": "美少女",
      "type": 0,
      "api": "https://www.msnii.com/api/xml.php",
      "searchable": 1,
      "quickSearch": 1,
      "filterable": 1
    },
 {
      "key": "饮水机2",
      "name": "饮水机",
      "type": 0,
      "api": "https://www.xrbsp.com/api/xml.php",
      "searchable": 1,
      "quickSearch": 1,
      "filterable": 1
    },
    {
      "key": "老鸭1",
      "name": "老鸭1",
      "type": 1,
      "api": "https://api.apilyzy.com/api.php/provide/vod/?ac=list",
      "playUrl": "json:https://player.77lehuo.com/aliplayer/?url=",
      "searchable": 1,
      "quickSearch": 1,
      "filterable": 0
    },
    {
      "key": "老鸭2",
      "name": "老鸭2",
      "type": 1,
      "api": "https://lbapi9.com/api.php/provide/vod/",
      "playUrl": "json:https://player.77lehuo.com/aliplayer/?url=",
      "searchable": 1,
      "quickSearch": 1,
      "filterable": 0
    },
    {
      "key": "葡萄",
      "name": "葡萄",
      "type": 1,
      "api": "https://api.putaozy.net/inc/apijson_vod.php",
      "searchable": 0,
      "quickSearch": 0,
      "filterable": 0
    },
    {
      "key": "奶插",
      "name": "奶插",
      "type": 1,
      "api": "https://caiji.naichaapi.com/inc/apijson_vod.php",
      "searchable": 1,
      "quickSearch": 1,
      "filterable": 1
    },
    {
      "key": "点点",
      "name": "点点",
      "type": 0,
      "api": "https://xx55zyapi.com/home/cjapi/ascf/mc/vod/xml",
      "searchable": 1,
      "quickSearch": 1,
      "filterable": 0
    },
    {
      "key": "小姐1",
      "name": "小姐姐",
      "type": 0,
      "api": "https://xjjzyapi.com/home/cjapi/askl/mc/vod/xml/m3u8",
      "searchable": 1,
      "quickSearch": 1,
      "filterable": 0
    },
    {
      "key": "屌丝",
      "name": "屌丝",
      "type": 0,
      "api": "https://sdszyapi.com/home/cjapi/asbb/sea/vod/xml",
      "searchable": 1,
      "quickSearch": 1,
      "filterable": 0
    },
    {
      "key": "色窝",
      "name": "色窝",
      "type": 1,
      "api": "https://sewozyapi.com/api.php/provide/vod/",
      "searchable": 1,
      "quickSearch": 1,
      "filterable": 0
    },
    {
      "key": "佳丽",
      "name": "佳丽",
      "type": 1,
      "api": "http://www.jializyzapi.com/api.php/provide/vod/",
      "searchable": 1,
      "quickSearch": 1,
      "filterable": 0
    },
    {
      "key": "小湿妹",
      "name": "小湿妹",
      "type": 0,
      "api": "https://www.afasu.com/api/xml.php",
      "searchable": 1,
      "quickSearch": 1,
      "filterable": 0
    },
    {
      "key": "香奶儿",
      "name": "香奶儿",
      "type": 0,
      "api": "https://www.gdlsp.com/api/xml.php",
      "searchable": 1,
      "quickSearch": 1,
      "filterable": 1
    },
    {
      "key": "鲍鱼",
      "name": "鲍鱼",
      "type": 0,
      "api": "http://caiji26.com/home/cjapi/p0g8/mc/vod/xml",
      "searchable": 1,
      "quickSearch": 1,
      "filterable": 0
    },
    {
      "key": "咪咪",
      "name": "咪咪",
      "type": 0,
      "api": "http://www.caiji25.com/home/cjapi/p0as/mc/vod/xml",
      "searchable": 1,
      "quickSearch": 1,
      "filterable": 0
    },
    {
      "key": "青青草",
      "name": "青青草",
      "type": 0,
      "api": "https://www.caiji05.com/home/cjapi/cfda/mc/vod/xml",
      "searchable": 1,
      "quickSearch": 1,
      "filterable": 0
    },
    {
      "key": "酷伦",
      "name": "酷伦",
      "type": 1,
      "api": "https://api.kudian70.com/api.php/provide/vod/",
      "playUrl": "https://jx.kujiexi.net/m3u8.php?url=",
      "searchable": 1,
      "quickSearch": 1,
      "filterable": 0
    },
    {
      "key": "环亚",
      "name": "环亚",
      "type": 0,
      "api": "http://wmcj8.com/inc/sapi.php",
      "searchable": 1,
      "quickSearch": 1,
      "filterable": 0
    },
    {
      "key": "花椒",
      "name": "花椒",
      "type": 1,
      "api": "https://apihjzy.com/api.php/provide/vod/",
      "searchable": 1,
      "quickSearch": 1,
      "filterable": 0
    },
    {
      "key": "523",
      "name": "523",
      "type": 0,
      "api": "https://caiji.523zyw.com/inc/seacmsapi.php",
      "playUrl": "https://api.523zyw.com/?url=",
      "searchable": 1,
      "quickSearch": 1,
      "filterable": 0
    },
    {
      "key": "探探",
      "name": "探探",
      "type": 1,
      "api": "https://apittzy.com/api.php/provide/vod/?ac=list",
      "playUrl": "https://jiexi.ttbfp1.com/m3u8/?url=",
      "searchable": 1,
      "quickSearch": 1,
      "filterable": 0
    },
{
      "key": "zmcj88",
      "name": "字幕网资源",
      "type": 0,
      "api": "http://zmcj88.com/sapi?ac=videolist",
      "searchable": 1,
      "quickSearch": 1,
      "filterable": 1
    },
    {
      "key": "乐鱼",
      "name": "乐鱼",
      "type": 0,
      "api": "https://www.leyuzyapi.com/inc/zyapimac.php",
      "playUrl": "https://player.leyuzy.net/?url=",
      "searchable": 1,
      "quickSearch": 1,
      "filterable": 0
    },
    {
      "key": "酷豆",
      "name": "酷豆",
      "type": 1,
      "api": "https://api.kdapi.info/api.php/provide/vod/",
      "playUrl": "https://jx.kubohk.com/jx/?url=",
      "searchable": 1,
      "quickSearch": 1,
      "filterable": 0
    },
    {
      "key": "大MM",
      "name": "大MM",
      "type": 0,
      "api": "https://www.dmmapi.com/home/cjapi/asd2c7/mc/vod/xml",
      "searchable": 1,
      "quickSearch": 1,
      "filterable": 0
    },
    {
      "key": "白嫖",
      "name": "白嫖",
      "type": 0,
      "api": "https://www.kxgav.com/api/xml.php",
      "searchable": 1,
      "quickSearch": 1,
      "filterable": 1
    },
     {
      "key": "9号资源",
      "name": "9号资源",
      "type": 0,
      "api": "http://fhapi9.com/api.php/provide/vod/at/xml/",
      "searchable": 1,
      "quickSearch": 1,
      "filterable": 0
    },
    {
    "key": "名优馆",
    "name": "名优馆",
    "type": 0,
    "api": "http://mygzycj.com/sapi.php?ac=videolist",
    "playUrl": "",
    "categories": []
    },
    {
    "key": "4000",
    "name": "4000",
    "type": 0,
    "api": "http://4000zy.com/inc/api.php",
    "playUrl": "",
    "categories": []
    },
    {
      "key": "哥哥妹妹",
      "name": "哥哥妹妹",
      "type": 0,
      "api": "http://www.ggmmzy.com:9999/inc/xml",
      "searchable": 0,
      "quickSearch": 0,
      "filterable": 0
    },
    {
      "key": "AVZY",
      "name": "AVZY",
      "type": 1,
      "api": "http://m.7777688.com/inc/apijson.php",
      "searchable": 0,
      "quickSearch": 0,
      "filterable": 0
    },
    {
      "key": "(18+)浪潮资源", 
      "name": "(18+)浪潮资源", "type": 1,
      "api": "http://langchaozy6.com/api.php/provide/vod/",
      "searchable": 1,
      "quickSearch": 1,
      "filterable": 0 
    } 
],

# 直播
    "lives": [
        { "group": "电影轮播", "channels": [ 
        { "name": "周星星","urls": [ "http://wabc.ml/huya.php?id=11342412" ] }, 
        { "name": "经典贺岁片", "urls": [ "http://117.148.179.159/PLTV/88888888/224/3221231679/index.m3u8" ] },
        { "name": "古天乐影院", "urls": [ "http://117.148.179.176/PLTV/88888888/224/3221231645/index.m3u8" ] },
        { "name": "成龙作品集", "urls": [ "http://117.148.179.163/PLTV/88888888/224/3221231687/index.m3u8" ] },
        { "name": "张国荣作品集", "urls": [ "http://117.148.179.177/PLTV/88888888/224/3221231790/index.m3u8" ] },
        { "name": "周润发影院", "urls": [ "http://117.148.179.177/PLTV/88888888/224/3221231709/index.m3u8" ] },
        { "name": "云上电影院", "urls": [ "http://117.148.179.176/PLTV/88888888/224/3221231565/index.m3u8" ] },
        { "name": "刘德华影院", "urls": [ "http://117.148.179.154/PLTV/88888888/224/3221231757/index.m3u8" ] },
        { "name": "刘亦菲影视展播", "urls": [ "http://117.148.179.165/PLTV/88888888/224/3221231787/index.m3u8" ] },
        { "name": "TVB剧场", "urls": [ "http://117.148.179.157/PLTV/88888888/224/3221231733/index.m3u8" ] },
        { "name": "盗墓方法论", "urls": [ "http://117.148.179.164/PLTV/88888888/224/3221231652/index.m3u8" ] },
        { "name": "试胆大会", "urls": [ "http://117.148.179.166/PLTV/88888888/224/3221231672/index.m3u8" ] },
        { "name": "军旅剧场", "urls": [ "http://117.148.179.145/PLTV/88888888/224/3221231585/index.m3u8" ] },
        { "name": "SNH48剧场公演", "urls": [ "http://117.148.179.139/PLTV/88888888/224/3221231622/index.m3u8" ] },
        { "name": "追剧少女", "urls": [ "http://117.148.179.179/PLTV/88888888/224/3221231643/index.m3u8" ] }
      ]
    }
  ],


    "parses": [
        { "name": "Json轮询", "type": 2, "url": "Sequence" },
        { "name": "Jsonaiaine", "type": 1, "url": "http://www.aiaine.com/api/?key=zJQvr5baYHz7vpNSy9&url=" },
        { "name": "8090", "type": 0, "url": "https://www.8090g.cn/?url=" } 
        ], 
    "flags": [ 
        "youku",
        "qq",
        "iqiyi",
        "qiyi",
        "letv",
        "sohu",
        "tudou",
        "pptv",
        "mgtv",
        "wasu",
        "bilibili" 
        ], 
    "ijk": [ 
        { "group": "软解码","options": [
        { "category": 4, "name": "opensles", "value": "0" },
        { "category": 4, "name": "overlay-format", "value": "842225234" },
        { "category": 4, "name": "framedrop", "value": "1" },
        { "category": 4, "name": "soundtouch", "value": "1" },
        { "category": 4, "name": "start-on-prepared", "value": "1" },
        { "category": 1, "name": "http-detect-range-support", "value": "0" },
        { "category": 1, "name": "fflags", "value": "fastseek" },
        { "category": 2, "name": "skip_loop_filter", "value": "48" },
        { "category": 4, "name": "reconnect", "value": "1" },
        { "category": 4, "name": "max-buffer-size", "value": "5242880" },
        { "category": 4, "name": "enable-accurate-seek", "value": "0" },
        { "category": 4, "name": "mediacodec", "value": "0" },
        { "category": 4, "name": "mediacodec-auto-rotate", "value": "0" },
        { "category": 4, "name": "mediacodec-handle-resolution-change", "value": "0" },
        { "category": 4, "name": "mediacodec-hevc", "value": "0" }
        ]
        },
        { "group": "硬解码", "options": [ 
        { "category": 4, "name": "opensles", "value": "0" },
        { "category": 4, "name": "overlay-format", "value": "842225234" },
        { "category": 4, "name": "framedrop", "value": "1" },
        { "category": 4, "name": "soundtouch", "value": "1" },
        { "category": 4, "name": "start-on-prepared", "value": "1" },
        { "category": 1, "name": "http-detect-range-support", "value": "0" },
        { "category": 1, "name": "fflags", "value": "fastseek" },
        { "category": 2, "name": "skip_loop_filter", "value": "48" },
        { "category": 4, "name": "reconnect", "value": "1" },
        { "category": 4, "name": "max-buffer-size", "value": "5242880" },
        { "category": 4, "name": "enable-accurate-seek", "value": "0" },
        { "category": 4, "name": "mediacodec", "value": "1" },
        { "category": 4, "name": "mediacodec-auto-rotate", "value": "1" },
        { "category": 4, "name": "mediacodec-handle-resolution-change", "value": "1" },
        { "category": 4, "name": "mediacodec-hevc", "value": "1" }
        ]
        }
        ],
    "ads":[
        "mimg.0c1q0l.cn",
        "www.googletagmanager.com",
        "www.google-analytics.com",
        "mc.usihnbcq.cn",
        "mg.g1mm3d.cn",
        "mscs.svaeuzh.cn",
        "cnzz.hhttm.top",
        "tp.vinuxhome.com",
        "cnzz.mmstat.com",
        "www.baihuillq.com",
        "s23.cnzz.com",
        "z3.cnzz.com",
        "c.cnzz.com",
        "stj.v1vo.top",
        "z12.cnzz.com",
        "img.mosflower.cn",
        "tips.gamevvip.com",
        "ehwe.yhdtns.com",
        "xdn.cqqc3.com",
        "www.jixunkyy.cn",
        "sp.chemacid.cn",
        "hm.baidu.com",
        "s9.cnzz.com",
        "z6.cnzz.com",
        "um.cavuc.com",
        "mav.mavuz.com",
        "wofwk.aoidf3.com",
        "z5.cnzz.com",
        "xc.hubeijieshikj.cn",
        "tj.tianwenhu.com",
        "xg.gars57.cn",
        "k.jinxiuzhilv.com",
        "cdn.bootcss.com",
        "ppl.xunzhuo123.com",
        "xomk.jiangjunmh.top",
        "img.xunzhuo123.com",
        "z1.cnzz.com",
        "s13.cnzz.com",
        "xg.huataisangao.cn",
        "z7.cnzz.com",
        "xg.huataisangao.cn",
        "z2.cnzz.com",
        "s96.cnzz.com",
        "q11.cnzz.com",
        "thy.dacedsfa.cn",
        "xg.whsbpw.cn",
        "s19.cnzz.com",
        "z8.cnzz.com",
        "s4.cnzz.com",
        "f5w.as12df.top",
        "ae01.alicdn.com",
        "www.92424.cn",
        "k.wudejia.com",
        "vivovip.mmszxc.top",
        "qiu.xixiqiu.com",
        "cdnjs.hnfenxun.com",
        "cms.qdwght.com"
        ]
        }