{
    "urls": [
        {
            "url": "https://pan.css.lc/api/v3/file/get/89954/%E5%8D%8A%E7%BB%BF%E8%89%B2%E5%8D%8A%E6%AD%A3%E5%B8%B8.txt?sign=7Fil1Cp5troAPHAQ-xFw-0CcpjenFdnUAZjFuQ8VnMk%3D%3A0",
            "name": "公众号【星河科技园】"
        }, 
        {
            "url": "http://maoyingshi.cc/tvbox/星河软件园/1.m3u8",
            "name": "🍓飞机🍀①"
        }, 
        {
            "url": "https://raw.fastgit.org/chengxueli818913/maoTV/main/18.json",
            "name": "🍓飞机2🉑"
        },
        {
            "url": "https://pan.css.lc/api/v3/file/get/89954/%E5%8D%8A%E7%BB%BF%E8%89%B2%E5%8D%8A%E6%AD%A3%E5%B8%B8.txt?sign=7Fil1Cp5troAPHAQ-xFw-0CcpjenFdnUAZjFuQ8VnMk%3D%3A0",
            "name": "🍓飞机3"
        },
        {
            "url": "https://ghproxy.com/https://raw.githubusercontent.com/franksun1211/TVBOX/main/fuli.json",
            "name": "🍓飞机4"
        },
        {
            "url": "https://ghproxy.com/https://raw.githubusercontent.com/2hacc/TVBox/main/H/h",
            "name": "🍓飞机5"
        },
        {
            "url": "https://raw.iqiq.io/zhanghong1983/TVBOXZY/main/TVBOX/iqiqgr.json",
            "name": "🍓飞机6"
        },
        {
            "url": "https://agit.ai/guot54/ygbh/raw/branch/master/plus/PRO.json",
            "name": "🍓飞机7"
        },
        {
            "url": "https://ghproxy.com/https://raw.githubusercontent.com/Guard-H/tvbox/main/cr/cr.json",
            "name": "🍓飞机8"
        },
        {
            "url": "https://guot55.github.io/gg1/qh.json",
            "name": "🍓飞机9"
        },
        {
            "url": "https://ghproxy.com/https://raw.githubusercontent.com/zhanghong1983/TVBOXZY/main/TVBOX/proxygr.json",
            "name": "🍓飞机10"
        },
        {
            "url": "https://ghproxy.com/https://raw.githubusercontent.com/2hacc/TVBox/main/H/h",
            "name": "🍓飞机11"
        },
        {
            "url": "http://zb-iptv.tk/18.json",
            "name": "🍓飞机12"
        },
        {
            "url": "http://152.136.125.181:81/MM/dianbos/yeshijieC.json",
            "name": "🍓飞机13"
        },
        {
            "url": "https://cdn.jsdelivr.net/gh/vpei/Free-TVUrl-Merge@main/out/tvbox.txt",
            "name": "飞机14"
        },
        {
            "url": "https://agit.ai/zzzgit/zzz/raw/branch/main/proxxx.json",
            "name": "飞机15"
        },
        {
            "url": "http://52bsj.vip:81/api/v3/file/get/53298/shuangbo.json?sign=XBqlHHmUDZNVGxlAYJIpr8omJDi-xwcUAsZUn2Jha7k%3D%3A0",
            "name": "飞机16"
        },
        {
            "url": "http://152.136.125.181:81/MM/dianbos/yeshijieC.json",
            "name": "飞机17"
        },
        {
            "url": "http://152.136.125.181:81/MM/dianbos/yeshijieD.json",
            "name": "飞机18"
        },
        {
            "url": "https://pic.stackoverflow.wiki/uploadImages/122/140/12/253/2022/08/28/19/53/49035532-8b9e-43b2-8c0c-be1c0908f1c5.jpg",
            "name": "飞机19"
        },
        {
            "url": "https://pan.css.lc/api/v3/file/get/89965/%E7%94%B5%E8%A7%86%E5%85%8Dvip.txt?sign=agMrEWCKQ6iit7W2Zkl3wq_HUNWqTdr-m5akXV02m-I%3D%3A0",
            "name": "飞机20"
        },  
        {
            "url": "https://cdn.staticaly.com/gh/mmtekamu/tvbox/main/jiekou/ss.json",
            "name": "飞机21"
        },
        {
            "url": "http://www.xueximeng.com/tvbox/飞机4.txt",
            "name": "飞机22"
        },
        {
            "url": "https://agit.ai/hu/hcr/raw/branch/master/1012.txt",
            "name": "飞机23"
        },
        {
            "url": "https://kjsc0310.github.io/tvy/s2.json",
            "name": "飞机24"
        },
        {
            "url": "https://pan.css.lc/api/v3/file/get/90000/%E7%A6%8F%E5%88%A9a.txt?sign=95vASm29QhPrV3XvG9D6H0OGLx7LMoXcFVGrbNJUw9g%3D%3A0",
            "name": "飞机25"
        },
        {
            "url": "http://tvmvip110.live/down.php/0772f96760785ddc626e8f3c994eaaf8.txt",
            "name": "飞机26"
        },
        {
            "url": "https://pan.css.lc/api/v3/file/get/90001/%E6%85%8E%E7%94%A8TVBOX%E7%A6%8F%E5%88%A9%E6%8E%A5%E5%8F%A3.txt?sign=d_ln4SM0GAuSPePU4eM2rvRL7iv1iaqOIPqAl_r21R0%3D%3A0",
            "name": "飞机27"
        },
        {
            "url": "https://agit.ai/hu/hcr/raw/branch/master/1012.txt",
            "name": "飞机28 直播9527"
        },
        {
            "url": "接口地址",
            "name": "接口名称"
        },
        {
            "url": "接口地址",
            "name": "接口名称"
        },
        {
            "url": "接口地址",
            "name": "接口名称"
        },
        {
            "url": "https://kjsc0310.github.io/tvy/s2.json",
            "name": "飞机23"
        }
    ],
    "vip": [
        {
            "url": "",
            "name": "默认"
        }
    ]
}